ramen
…
# top 10 brand with highest products
ramen$Brand %>% table() %>% sort(decreasing=T) %>% head(10)

## .
##   Nissin     Mama Nongshim Maruchan  Samyang    Paldo    Myojo  Indomie 
##      379       98       98       76       70       66       63       53 
##   Ottogi     Koka 
##       45       43

# brands that earn the highest score
score=ramen %>% group_by(Brand,Country) %>% summarise(score=mean(Stars))
score[order(score$score,decreasing = T),]

## # A tibble: 402 x 3
## # Groups:   Brand [335]
##    Brand            Country     score
##    <chr>            <chr>       <dbl>
##  1 Daddy            Malaysia        5
##  2 Daifuku          USA             5
##  3 Foodmon          South Korea     5
##  4 Higashi          Japan           5
##  5 Jackpot Teriyaki USA             5
##  6 Kiki Noodle      Taiwan          5
##  7 Kimura           Japan           5
##  8 Little Cook      Taiwan          5
##  9 Maggi            Australia       5
## 10 MyKuali          Japan           5
## #  with 392 more rows

# interestingly the top ones are not the huge producer, examine what happens to Japan
score=ramen %>% group_by(Country) %>% summarise(score=mean(Stars))
score[order(score$score,decreasing = T),]

## # A tibble: 38 x 2
##    Country   score
##    <chr>     <dbl>
##  1 Brazil     4.35
##  2 Sarawak    4.33
##  3 Cambodia   4.2 
##  4 Malaysia   4.15
##  5 Singapore  4.13
##  6 Indonesia  4.07
##  7 Japan      3.98
##  8 Myanmar    3.95
##  9 Fiji       3.88
## 10 Hong Kong  3.80
## #  with 28 more rows
…
